{
  "common": {
    "proposalsSigns": [
      {
        "id": 1,
        "text": "MKT",
        "sign": "mkt",
        "bgColor": "#00b1ff"
      },
      {
        "id": 2,
        "text": "YLD",
        "sign": "yld",
        "bgColor": "#7de213"
      },
      {
        "id": 3,
        "text": "GOV",
        "sign": "gov",
        "bgColor": "#9329d7"
      },
      {
        "id": 4,
        "text": "LDN21",
        "sign": "ldn21",
        "bgColor": "#ff575d"
      }
    ]
  },
  "proposalsPage": {
    "gridHeaders": [
      "",
      "title",
      "ipfs",
      "start date",
      "end date",
      "strategy",
      "total votes",
      "status"
    ],
    "influence": {
      "underLineNavItems": [
        {
          "id": 1,
          "text": "All",
          "tab": "all",
          "counter": false
        },
        {
          "id": 2,
          "text": "Markets",
          "tab": "MKT",
          "counter": false
        },
        {
          "id": 3,
          "text": "Yield",
          "tab": "YLD",
          "counter": false
        },
        {
          "id": 4,
          "text": "Governance",
          "tab": "GOV",
          "counter": false
        }
      ],
      "dropdownButtonItems": [
        {
          "id": 1,
          "text": "Open",
          "selected": false,
          "textColor": "text-turq",
          "className": "bg-turq",
          "filter": "open"
        },
        {
          "id": 2,
          "text": "Closed",
          "selected": false,
          "textColor": "text-strawberry",
          "className": "bg-strawberry circle",
          "filter": "closed"
        }
      ]
    },
    "election": {
      "underLineNavItems": [
        {
          "id": 1,
          "text": "London Elects",
          "tab": "LDN21",
          "counter": false
        }
      ],
      "dropdownButtonItems": [
        {
          "id": 1,
          "text": "Open",
          "selected": false,
          "textColor": "text-turq",
          "className": "bg-turq rounded-0",
          "filter": "open"
        },
        {
          "id": 2,
          "text": "Closed",
          "selected": false,
          "textColor": "text-strawberry",
          "className": "bg-strawberry circle ",
          "filter": "closed"
        }
      ]
    },
    "identity": {
      "underLineNavItems": [
        {
          "id": 1,
          "text": "All",
          "tab": "all",
          "counter": false
        },
        {
          "id": 2,
          "text": "Markets",
          "tab": "MKT",
          "counter": false
        },
        {
          "id": 3,
          "text": "Yield",
          "tab": "YLD",
          "counter": false
        },
        {
          "id": 4,
          "text": "Governance",
          "tab": "GOV",
          "counter": false
        }
      ],
      "dropdownButtonItems": [
        {
          "id": 1,
          "text": "Open",
          "selected": false,
          "textColor": "text-turq",
          "className": "bg-turq rounded-0",
          "filter": "open"
        },
        {
          "id": 2,
          "text": "Closed",
          "selected": false,
          "textColor": "text-strawberry",
          "className": "bg-strawberry circle",
          "filter": "closed"
        }
      ]
    }
  },
  "proposalPage": {
    "influence": {
      "underLineNavItems": [
        {
          "id": 1,
          "text": "My Vote",
          "tab": "vote",
          "counter": false
        },
        {
          "id": 2,
          "text": "Opinions",
          "tab": "opinions",
          "counter": false
        },
        {
          "id": 3,
          "text": "Votes List",
          "tab": "vlist",
          "counter": true
        }
      ],
      "dropdownButtonItems": [
        {
          "id": 1,
          "text": "Newest",
          "selected": false,
          "textColor": "text-gray",
          "className": "",
          "filter": "newest"
        },
        {
          "id": 2,
          "text": "$I Power",
          "selected": false,
          "textColor": "text-gray",
          "className": "",
          "filter": "power"
        },
        {
          "id": 3,
          "text": "Top Rated",
          "selected": false,
          "textColor": "text-gray",
          "className": "",
          "filter": "top-rated"
        },
        {
          "id": 4,
          "text": "Old",
          "selected": false,
          "textColor": "text-gray",
          "className": "",
          "filter": "old"
        }
      ]
    },
    "election": {
      "underLineNavItems": [
        {
          "id": 1,
          "text": "My Vote",
          "tab": "vote",
          "counter": false
        },
        {
          "id": 2,
          "text": "Opinions",
          "tab": "opinions",
          "counter": false
        }
      ],
      "dropdownButtonItems": [
        {
          "id": 1,
          "text": "Newest",
          "selected": false,
          "textColor": "text-gray",
          "className": "",
          "filter": "newest"
        },
        {
          "id": 2,
          "text": "$I Power",
          "selected": false,
          "textColor": "text-gray",
          "className": "",
          "filter": "power"
        },
        {
          "id": 3,
          "text": "Old",
          "selected": false,
          "textColor": "text-gray",
          "className": "",
          "filter": "old"
        }
      ]
    },
    "identity": {
      "underLineNavItems": [
        {
          "id": 1,
          "text": "My Vote",
          "tab": "vote",
          "counter": false
        },
        {
          "id": 2,
          "text": "Opinions",
          "tab": "opinions",
          "counter": false
        },
        {
          "id": 3,
          "text": "Votes List",
          "tab": "vlist",
          "counter": true
        }
      ],
      "dropdownButtonItems": [
        {
          "id": 1,
          "text": "Newest",
          "selected": false,
          "textColor": "text-gray",
          "className": "",
          "filter": "newest"
        },
        {
          "id": 2,
          "text": "$I Power",
          "selected": false,
          "textColor": "text-gray",
          "className": "",
          "filter": "power"
        },
        {
          "id": 3,
          "text": "Old",
          "selected": false,
          "textColor": "text-gray",
          "className": "",
          "filter": "old"
        }
      ]
    }
  },
  "newProposal": {
    "dropdownButtonItems": [
      {
        "id": 1,
        "text": "MKT",
        "selected": false,
        "textColor": "text-gray",
        "className": "",
        "filter": "mkt"
      },
      {
        "id": 2,
        "text": "YLD",
        "selected": false,
        "textColor": "text-gray",
        "className": "",
        "filter": "yld"
      },
      {
        "id": 3,
        "text": "GOV",
        "selected": false,
        "textColor": "text-gray",
        "className": "",
        "filter": "gov"
      }
    ]
  }
}
