<svg xmlns="http://www.w3.org/2000/svg" width="27" height="27" viewBox="0 0 27 27">
    <g fill="none" fill-rule="evenodd">
        <g stroke="#DFE8E8">
            <g>
                <g>
                    <path d="M.354.354L26.353 26.352M.354 26.352L26.354.354" transform="translate(-1217 -171) translate(1217 171)"/>
                </g>
            </g>
        </g>
    </g>
</svg>
